-------------------------------------------------------------------------------
Test set: org.example.package1.SoustraireTest
-------------------------------------------------------------------------------
Tests run: 2, Failures: 0, Errors: 0, Skipped: 0, Time elapsed: 0.01 s - in org.example.package1.SoustraireTest
