org/example/package1/AdditionnerTest.class
org/example/DevTest.class
org/example/package2/DiviserTest.class
org/example/ProdTest.class
org/example/AllMyTests.class
App.class
org/example/ExceptionTest.class
org/example/package1/SoustraireTest.class
org/example/package2/MultiplierTest.class
